<svg 
 xmlns="http://www.w3.org/2000/svg"
 xmlns:xlink="http://www.w3.org/1999/xlink"
 width="1024px" height="1024px">
<path fill-rule="evenodd"  fill="rgb(45, 74, 206)"
 d="M512.000,-0.000 C794.770,-0.000 1024.000,229.230 1024.000,512.000 C1024.000,794.770 794.770,1024.000 512.000,1024.000 C229.230,1024.000 -0.000,794.770 -0.000,512.000 C-0.000,229.230 229.230,-0.000 512.000,-0.000 Z"/>
</svg>